Rebekah Tweets
…
frequency <- tidy_tweets %>%
  group_by(Candidate) %>%
  filter(!str_detect(word, "^@")) %>%
  count(word, sort = TRUE) %>%
  left_join(tidy_tweets %>%
              group_by(Candidate) %>%
              summarise(total = n())) %>%
  mutate(freq = n/total)

## Joining, by = "Candidate"

frequency

## # A tibble: 10,382 x 5
## # Groups:   Candidate [4]
##    Candidate word               n total   freq
##    <chr>     <chr>          <int> <int>  <dbl>
##  1 Macron    emmanuelmacron   582  6087 0.0956
##  2 Macron    gmt              582  6087 0.0956
##  3 Clinton   rt               290 11509 0.0252
##  4 Clinton   hillary          286 11509 0.0249
##  5 Clinton   trump            280 11509 0.0243
##  6 Le Pen    macron           178  4775 0.0373
##  7 Macron    2017led         174  6087 0.0286
##  8 Macron    bat              171  6087 0.0281
##  9 Clinton   donald           145 11509 0.0126
## 10 Clinton   vote             138 11509 0.0120
## # ... with 10,372 more rows

In order to plot the information learned above we use use the spread() function to make a differently shaped data frame:

frequency <- frequency %>%
  select(Candidate, word, freq) %>%
  spread(Candidate, freq) %>%
  arrange(Clinton, Trump, Macron, `Le Pen`)

frequency

## # A tibble: 8,337 x 5
##    word           Clinton  `Le Pen`   Macron    Trump
##    <chr>            <dbl>     <dbl>    <dbl>    <dbl>
##  1 directly     0.0000869  0.000209 0.000164 0.000184
##  2 opposed      0.0000869  0.000209 0.000164 0.000184
##  3 solutions    0.0000869  0.000209 0.000164 0.000184
##  4 gratitude    0.0000869  0.000838 0.000164 0.000184
##  5 advance      0.0000869 NA        0.000164 0.000184
##  6 announcement 0.0000869 NA        0.000164 0.000184
##  7 damage       0.0000869 NA        0.000164 0.000184
##  8 dream        0.0000869 NA        0.000164 0.000184
##  9 impact       0.0000869 NA        0.000164 0.000184
## 10 information  0.0000869 NA        0.000164 0.000184
## # ... with 8,327 more rows
…
